[{
	"title": "Alert 1",
	"body": [{
		"value": "<p>Duis ornare odio maximus, rutrum orci eu, lobortis turpis. Maecenas lacus ante, fringilla vitae tortor non, mollis consectetur nunc. Vivamus in odio et nibh placerat posuere volutpat non orci. Sed in ultrices metus, sit amet vulputate tellus.</p>",
		"format": "full_html"
	}]
}, {
	"title": "Alert 2",
	"body": [{
		"value": "<p>Duis ornare odio maximus, rutrum orci eu, lobortis turpis. Maecenas lacus ante, fringilla vitae tortor non, mollis consectetur nunc. Vivamus in odio et nibh placerat posuere volutpat non orci. Sed in ultrices metus, sit amet vulputate tellus.</p>",
		"format": "full_html"
	}]
}]