[
  {
    "title":  "The Africa Initiative at Yale: Research in the Sciences and Social Sciences",
    "field_event_admission": "Free",
    "field_event_date": [{
      "value": "2017-10-29T12:00:00"
    }, {
      "value": "2017-02-28T12:00:00"
    }],
    "field_event_description": [{
      "value": "<p>Yale Initiatives in Africa range from projects in the medical fields to social analysis. Influenced by President Peter Salovey\u2019s Africa Initiative at Yale, this media exhibit at CSSSI displays research by faculty members and scholars at the Center for Interdisciplinary Research on AIDS, School of Epidemiology and Public Health, School of Medicine, Yale Council on African Studies, and many others. Related country information and photos from featured scholars are interspersed throughout this exhibit.<\/p>\r\n",
      "format": "full_html"
    }],
    "field_event_location": [{
      "langcode": null,
      "country_code": "US",
      "administrative_area": "US-CT",
      "locality": "New Haven",
      "dependent_locality": null,
      "postal_code": "06520",
      "sorting_code": null,
      "address_line1": "219 Prospect Street",
      "address_line2": "",
      "organization": "Center for Science and Social Science Information (CSSSI), 24\/7 Space",
      "recipient": ""
    }],
    "field_event_image": "dada12_edit.jpg",
    "field_event_open_to": [{
      "value": "General Public"
    }],
    "field_event_original_link": [{
      "uri": "http:\/\/calendar.yale.edu\/events\/opa\/CAL-2c9cb3cc-52282dc4-0152-4677357e-00000393bedework@yale.edu\/",
      "title": "Original event page",
      "options": []
    }],
    "field_event_phone": [{
      "value": "203-432-1810"
    }],
    "field_event_related_url": [{
      "uri": "http:\/\/www.library.yale.edu",
      "title": "Yale University Library",
      "options": []
    }],
    "field_event_tags": "Arts"
  }, {
    "title":  "James Gillray’s Hogarthian Progresses",
    "field_event_admission": "Free",
    "field_event_date": [{
      "value": "2017-04-06T12:00:00"
    }, {
      "value": "2017-09-16T12:00:00"
    }],
    "field_event_description": [{
      "value": "<p>Sequential narration in satiric prints is most famously associated with the &ldquo;modern moral subjects&rdquo; of William Hogarth (1697&ndash;1764): Harlot&rsquo;s Progress (1732), A Rake&rsquo;s Progress (1735), Marriage A-la-Mode (1745), and Industry and Idleness (1747) among others. Less well-known is the broad spectrum of legacy &ldquo;progresses&rdquo; produced by subsequent generations drawing both on Hogarth&rsquo;s narrative strategies and his iconic motifs. James Gillray (1756&ndash;1815), celebrated for his innovative single-plate satires, was also among the most accomplished printmakers to adopt Hogarthian sequential narration even as he transformed it according to his unique vision. This exhibition presents a number of Gillray&rsquo;s Hogarthian progresses alongside some selected prints by Hogarth himself.</p>",
      "format": "full_html"
    }],
    "field_event_location": [{
      "langcode": null,
      "country_code": "US",
      "administrative_area": "US-CT",
      "locality": "Farmington",
      "dependent_locality": null,
      "postal_code": "06034",
      "sorting_code": null,
      "address_line1": "154 Main Street",
      "address_line2": "",
      "organization": "Lewis Walpole Library",
      "recipient": ""
    }],
    "field_event_image": "ysm.jpg",
    "field_event_open_to": [{
      "value": "General Public"
    }],
    "field_event_original_link": [{
      "uri": "http:\/\/calendar.yale.edu\/events\/opa\/CAL-2c9cb3cc-52282dc4-0152-4677357e-00000393bedework@yale.edu\/",
      "title": "Original event page",
      "options": []
    }],
    "field_event_phone": [{
      "value": "203-432-1810"
    }],
    "field_event_related_url": [{
      "uri": "http:\/\/www.library.yale.edu",
      "title": "Yale University Library",
      "options": []
    }],
    "field_event_tags": "Science"
  }
]
