[{
	"title": "Subpage 1",
	"body": [{
		"value": "<p>This page shows the various text and formatting styles offered through YaleSites Templates. The WYSIWYG toolbar in the admin tool allows you to easily apply these styles to your content on a page or within a block.</p><p><img alt=\"This is the Alt text\" class=\"floatright\" src=\"/sites/default/files/groupshot.jpg\" title=\"This caption is the &quot;Advisory Title&quot; found under the Advanced tab in the image dialog.\" /></p><h2>Heading 2 sub-head</h2><p>Second level heading used in the body section of the page. Vel ancillae volutpat eu, est everti dolores definitionem ad, eum noster sapientem similique ea. Te per esse tamquam, pro dicunt aeterno appetere ad. Iusto scripta id vix, ad nam causae inermis definitionem, ad sea vidit habeo.</p><h3>Heading 3 sub-head</h3><p>Third level heading used in the body section of the page. Ut illum paulo eam, inani salutatus vis eu. Natum movet libris ius ex, an eum noster feugiat explicari, eu nec graece scribentur. Mel cibo fuisset albucius ut, ferri consul ut has. Primis moderatius consectetuer vim te.</p><h4>Heading 4 sub-head</h4><p>Fourth level heading used in the body section of the page. Vim ne summo senserit, justo graeco molestie vis at. Vis corpora pericula eu. Error blandit id qui. Facilisis laboramus honestatis pro ut.</p><h5>Heading 5 sub-head</h5><p>Iusto scripta id vix, ad nam causae inermis definitionem, ad sea vidit habeo. Facilisis laboramus honestatis pro ut. Illud ceteros no duo, at ceteros eligendi tincidunt usu.</p><h6>Heading 6 sub-head</h6><p>Iusto scripta id vix, ad nam causae inermis definitionem, ad sea vidit habeo. Facilisis laboramus honestatis pro ut. Illud ceteros no duo, at ceteros eligendi tincidunt usu.</p><h5>Bulleted List</h5><ul><li>Bulleted list item 1</li><li>Bulleted list item 2</li><li>Bulleted list item 3</li><li>Bulleted list item 4</li></ul><h5>Numbered List</h5><ol><li>Numbered list item 1</li><li>Numbered list item 2</li><li>Numbered list item 3</li><li>Numbered list item 4</li></ol><h5>Nested Lists</h5><p>You can mix and match bulleted and numbered lists anyway you want. Ad est labore deseruisse. Vel ancillae volutpat eu, est everti dolores definitionem ad, eum noster sapientem similique ea.</p><ol><li>Step One</li><li>Step Two<ul><li>A statement about step two</li><li>Another statement about step two</li></ul></li><li>Step Three</li><li>Step Four</li></ol><ul><li>Step One</li><li>Step Two<ol><li>A statement about step two</li><li>Another statement about step two</li></ol></li><li>Step Three</li><li>Step Four</li></ul><blockquote><p><strong>Blockquote.</strong> Use the &quot;blockquote&quot;button on the wysiwyg toolbar to add these quotation marks around paragraph text. Sed diam nonummy nibh euismod tincidunt ut laoreet dolore magna aliquam erat volutpat. Ut wisi enim ad minim veniam, quis nostrud exerci tation ullamcorper suscipit lobortis nisl ut aliquip.</p></blockquote><h2>Tables</h2><p>Tables should only be used when you have data that needs to be stored in tabular form. CSS, not tables, should be used for layout purposes.</p><p>Here is a sample table with a Header text</p><table><tbody><tr><th>Header</th><th>Header</th><th>Header</th><th>Header</th></tr><tr><td>Data</td><td>Data</td><td>Data</td><td>Data</td></tr><tr><td>Data</td><td>Data</td><td>Data</td><td>Data</td></tr><tr><td>Data</td><td>Data</td><td>Data</td><td>Data</td></tr></tbody></table><p>Here is a table with the Grid Table class</p><table class=\"grid\"><tbody><tr><th>Header</th><th>Header</th><th>Header</th><th>Header</th></tr><tr><td>Data</td><td>Data</td><td>Data</td><td>Data</td></tr><tr><td>Data</td><td>Data</td><td>Data</td><td>Data</td></tr><tr><td>Data</td><td>Data</td><td>Data</td><td>Data</td></tr></tbody></table><h2>Horizontal Rule</h2><p>Horizontal rules can be added by clicking the Horizontal Rule <span style=\"background-image:url(/sites/all/libraries/ckeditor/skins/kama/icons.png); background-position:0 -624px; background-repeat:no-repeat; width:16px; height:16px; display:inline-block; background-color:#ddd; border:2px solid #ddd\">&nbsp;</span> icon.</p><hr /><h2>Other Formats</h2><ul><li><em><strong>Special characters </strong></em>can be used for languages other than English. Click on the Special Character icon <span style=\"background-image:url(/sites/all/libraries/ckeditor/skins/kama/icons.png); background-position:0 -656px; background-repeat:no-repeat; width:16px; height:16px; display:inline-block; background-color:#ddd; border:2px solid #ddd\">&nbsp;</span> and choose the character to add. i.e. &ntilde;&euml;</li><li><em><strong>Superscript </strong></em>and <em><strong>subscript </strong></em>can be used to add characters for math or chemical formulas i.e. H<sub>2</sub>0, 10<sup>2</sup>. Select the character and use the superscript <span style=\"background-image:url(/sites/all/libraries/ckeditor/skins/kama/icons.png); background-position:0 -384px; background-repeat:no-repeat; width:16px; height:16px; display:inline-block; background-color:#ddd; border:2px solid #ddd\">&nbsp;</span> and subscript <span style=\"background-image:url(/sites/all/libraries/ckeditor/skins/kama/icons.png); background-position:0 -368px; background-repeat:no-repeat; width:16px; height:16px; display:inline-block; background-color:#ddd; border:2px solid #ddd\">&nbsp;</span> icons on the WYSIWYG toolbar.</li><li>You can use <em><strong>strikethrough </strong></em>to create a line through a word or phrase. Select the word or phrase and use the strikethrough <span style=\"background-image:url(/sites/all/libraries/ckeditor/skins/kama/icons.png); background-position:0 -352px; background-repeat:no-repeat; width:16px; height:16px; display:inline-block; background-color:#ddd; border:2px solid #ddd\">&nbsp;</span> icons.</li></ul>",
		"format": "full_html"
	}]
}, {
  "title": "About Us",
  "body": [{
    "value": "<p><img alt=\"\" src=\"/sites/default/files/rotc-445.jpg\" style=\"width:445px; height:297px\" title=\"Yale ROTC - This photo is 445 pixels wide to fill the width of the main content column.\" /></p><p><em>The &quot;About&quot; page for your site should provide information that explains the purpose of your department or organization, and its relationship to Yale University. For example:</em></p><p>For more than a century, English at Yale has been an important force in the academic study of literature and a key part of Yale&rsquo; educational mission. The Department teaches the majority of freshmen in Yale College, graduates more than 100 majors in every Yale class, and trains PhDs in English, who become scholars and teachers of literature. Over the decades our PhDs have gone on to leadership positions throughout the academic profession.</p><p>For undergraduates, the Department offers an array of introductory courses designed to develop fundamental writing skills, powers of argument and analysis, and a historical perspective on literature. The English Major introduces students to the many traditions of imaginative writing in English through courses focused on both familiar topics such as Milton or Modern American Literature and the newest areas of faculty investigation. The Department aims to help deepen students&rsquo; insights into their own experience and to develop their ability to express their ideas orally and in writing. Yale English majors have an astonishing recent history of writing awards and successful publication.</p><p>In addition to courses in literature and expository writing, the Department is the home of creative writing at Yale. Our illustrious writers work in all of the major genres - fiction, poetry, play and film writing, nonfiction prose, journalism - and together they make this one of the strongest undergraduate programs in creative writing in the United States.</p>",
    "format": "full_html"
  }]
}, {
  "title": "Subpage 2",
  "body": [{
    "value": "<p>This page shows the various text and formatting styles offered through YaleSites Templates. The WYSIWYG toolbar in the admin tool allows you to easily apply these styles to your content on a page or within a block.</p><p><img alt=\"This is the Alt text\" class=\"floatright\" src=\"/sites/default/files/groupshot.jpg\" title=\"This caption is the &quot;Advisory Title&quot; found under the Advanced tab in the image dialog.\" /></p><h2>Heading 2 sub-head</h2><p>Second level heading used in the body section of the page. Vel ancillae volutpat eu, est everti dolores definitionem ad, eum noster sapientem similique ea. Te per esse tamquam, pro dicunt aeterno appetere ad. Iusto scripta id vix, ad nam causae inermis definitionem, ad sea vidit habeo.</p><h3>Heading 3 sub-head</h3><p>Third level heading used in the body section of the page. Ut illum paulo eam, inani salutatus vis eu. Natum movet libris ius ex, an eum noster feugiat explicari, eu nec graece scribentur. Mel cibo fuisset albucius ut, ferri consul ut has. Primis moderatius consectetuer vim te.</p><h4>Heading 4 sub-head</h4><p>Fourth level heading used in the body section of the page. Vim ne summo senserit, justo graeco molestie vis at. Vis corpora pericula eu. Error blandit id qui. Facilisis laboramus honestatis pro ut.</p><h5>Heading 5 sub-head</h5><p>Iusto scripta id vix, ad nam causae inermis definitionem, ad sea vidit habeo. Facilisis laboramus honestatis pro ut. Illud ceteros no duo, at ceteros eligendi tincidunt usu.</p><h6>Heading 6 sub-head</h6><p>Iusto scripta id vix, ad nam causae inermis definitionem, ad sea vidit habeo. Facilisis laboramus honestatis pro ut. Illud ceteros no duo, at ceteros eligendi tincidunt usu.</p><h5>Bulleted List</h5><ul><li>Bulleted list item 1</li><li>Bulleted list item 2</li><li>Bulleted list item 3</li><li>Bulleted list item 4</li></ul><h5>Numbered List</h5><ol><li>Numbered list item 1</li><li>Numbered list item 2</li><li>Numbered list item 3</li><li>Numbered list item 4</li></ol><h5>Nested Lists</h5><p>You can mix and match bulleted and numbered lists anyway you want. Ad est labore deseruisse. Vel ancillae volutpat eu, est everti dolores definitionem ad, eum noster sapientem similique ea.</p><ol><li>Step One</li><li>Step Two<ul><li>A statement about step two</li><li>Another statement about step two</li></ul></li><li>Step Three</li><li>Step Four</li></ol><ul><li>Step One</li><li>Step Two<ol><li>A statement about step two</li><li>Another statement about step two</li></ol></li><li>Step Three</li><li>Step Four</li></ul><blockquote><p><strong>Blockquote.</strong> Use the &quot;blockquote&quot;button on the wysiwyg toolbar to add these quotation marks around paragraph text. Sed diam nonummy nibh euismod tincidunt ut laoreet dolore magna aliquam erat volutpat. Ut wisi enim ad minim veniam, quis nostrud exerci tation ullamcorper suscipit lobortis nisl ut aliquip.</p></blockquote><h2>Tables</h2><p>Tables should only be used when you have data that needs to be stored in tabular form. CSS, not tables, should be used for layout purposes.</p><p>Here is a sample table with a Header text</p><table><tbody><tr><th>Header</th><th>Header</th><th>Header</th><th>Header</th></tr><tr><td>Data</td><td>Data</td><td>Data</td><td>Data</td></tr><tr><td>Data</td><td>Data</td><td>Data</td><td>Data</td></tr><tr><td>Data</td><td>Data</td><td>Data</td><td>Data</td></tr></tbody></table><p>Here is a table with the Grid Table class</p><table class=\"grid\"><tbody><tr><th>Header</th><th>Header</th><th>Header</th><th>Header</th></tr><tr><td>Data</td><td>Data</td><td>Data</td><td>Data</td></tr><tr><td>Data</td><td>Data</td><td>Data</td><td>Data</td></tr><tr><td>Data</td><td>Data</td><td>Data</td><td>Data</td></tr></tbody></table><h2>Horizontal Rule</h2><p>Horizontal rules can be added by clicking the Horizontal Rule <span style=\"background-image:url(/sites/all/libraries/ckeditor/skins/kama/icons.png); background-position:0 -624px; background-repeat:no-repeat; width:16px; height:16px; display:inline-block; background-color:#ddd; border:2px solid #ddd\">&nbsp;</span> icon.</p><hr /><h2>Other Formats</h2><ul><li><em><strong>Special characters </strong></em>can be used for languages other than English. Click on the Special Character icon <span style=\"background-image:url(/sites/all/libraries/ckeditor/skins/kama/icons.png); background-position:0 -656px; background-repeat:no-repeat; width:16px; height:16px; display:inline-block; background-color:#ddd; border:2px solid #ddd\">&nbsp;</span> and choose the character to add. i.e. &ntilde;&euml;</li><li><em><strong>Superscript </strong></em>and <em><strong>subscript </strong></em>can be used to add characters for math or chemical formulas i.e. H<sub>2</sub>0, 10<sup>2</sup>. Select the character and use the superscript <span style=\"background-image:url(/sites/all/libraries/ckeditor/skins/kama/icons.png); background-position:0 -384px; background-repeat:no-repeat; width:16px; height:16px; display:inline-block; background-color:#ddd; border:2px solid #ddd\">&nbsp;</span> and subscript <span style=\"background-image:url(/sites/all/libraries/ckeditor/skins/kama/icons.png); background-position:0 -368px; background-repeat:no-repeat; width:16px; height:16px; display:inline-block; background-color:#ddd; border:2px solid #ddd\">&nbsp;</span> icons on the WYSIWYG toolbar.</li><li>You can use <em><strong>strikethrough </strong></em>to create a line through a word or phrase. Select the word or phrase and use the strikethrough <span style=\"background-image:url(/sites/all/libraries/ckeditor/skins/kama/icons.png); background-position:0 -352px; background-repeat:no-repeat; width:16px; height:16px; display:inline-block; background-color:#ddd; border:2px solid #ddd\">&nbsp;</span> icons.</li></ul>",
    "format": "full_html"
  }]
}]
